Asks
…
data%>%
  group_by(Detector, Method, Tool, Input)%>%
  filter(Method!="PCR")%>%
  summarize(n=n(),
            Ct=mean(Ct))%>%
  mutate(tools=(n/2))

## `summarise()` has grouped output by 'Detector', 'Method', 'Tool'. You can override using the `.groups` argument.

## # A tibble: 56 x 7
## # Groups:   Detector, Method, Tool [20]
##    Detector Method Tool     Input     n    Ct tools
##    <fct>    <fct>  <fct>    <dbl> <int> <dbl> <dbl>
##  1 N1 Probe CDC    A          300    17  28.6   8.5
##  2 N1 Probe CDC    B          300    17  NA     8.5
##  3 N1 Probe CDC    NEG.CTRL   300     3  NA     1.5
##  4 N1 Probe CDC    POS.CTRL   300     3  26.3   1.5
##  5 N1 Probe CDC    SD         300    16  22.6   8  
##  6 N1 Probe NTP    A          300    18  28.2   9  
##  7 N1 Probe NTP    A         1000    18  27.0   9  
##  8 N1 Probe NTP    A         6700     2  27.0   1  
##  9 N1 Probe NTP    A         6800     4  26.1   2  
## 10 N1 Probe NTP    A         6900    10  25.1   5  
## # ... with 46 more rows
…
